<svg xmlns="http://www.w3.org/2000/svg" width="20" height="20" viewBox="0 0 20 20">
    <g fill="none" fill-rule="evenodd">
        <path d="M0 0h20v20H0z"/>
        <path fill="#4162F1" fill-rule="nonzero" d="M6.33 9.862l2.886 2.82a1.128 1.128 0 0 0 1.57 0l2.886-2.82c.702-.686.201-1.862-.79-1.862H7.11c-.991 0-1.482 1.176-.78 1.862z"/>
    </g>
</svg>
